%YAML 1.1
%TAG !u! tag:unity3d.com,2011:
--- !u!221 &22100000
AnimatorOverrideController:
  m_ObjectHideFlags: 0
  m_CorrespondingSourceObject: {fileID: 0}
  m_PrefabInstance: {fileID: 0}
  m_PrefabAsset: {fileID: 0}
  m_Name: CB
  m_Controller: {fileID: 9100000, guid: 5582659dd214d054280215a423b6015d, type: 2}
  m_Clips:
  - m_OriginalClip: {fileID: 7400000, guid: 4482362f6571a7e4dbfb8815fb3580ea, type: 2}
    m_OverrideClip: {fileID: 7400000, guid: 1038fc79dd305b240a805758004ccccb, type: 2}
  - m_OriginalClip: {fileID: 7400000, guid: 1c4ff04f809109e43af3276c7d66b381, type: 2}
    m_OverrideClip: {fileID: 7400000, guid: 21624e4ad1f569d4b9de744ce62a9198, type: 2}
  - m_OriginalClip: {fileID: 7400000, guid: 6c282a3a71636a44185dba9d5beaebec, type: 2}
    m_OverrideClip: {fileID: 7400000, guid: e6dc47cbf89c4ed4aa3e395863df8386, type: 2}
  - m_OriginalClip: {fileID: 7400000, guid: 0ab1cb488d382c14180ee77b0dbafc16, type: 2}
    m_OverrideClip: {fileID: 7400000, guid: 303fd22b30f6e8842ad482f3a3321c3a, type: 2}
