%YAML 1.1
%TAG !u! tag:unity3d.com,2011:
--- !u!21 &2100000
Material:
  serializedVersion: 6
  m_ObjectHideFlags: 0
  m_CorrespondingSourceObject: {fileID: 0}
  m_PrefabInstance: {fileID: 0}
  m_PrefabAsset: {fileID: 0}
  m_Name: Rostam
  m_Shader: {fileID: 4800000, guid: 0154318cd2c5a3747a66420b5d885dd5, type: 3}
  m_ShaderKeywords: _COLOR2OVERLAYTYPE_VERTEXPOSITIONBASED _COLOR2OVERLAYTYPE_VERTEX_POSITION_BASED
    _COLOR2TYPE_VERTEXPOSITIONBASED _COVERAGEOVERLAYTYPE_WORLD_NORMAL _KEYWORD0_ON
    _SNOWOVERLAYTYPE_WORLDNORMALBASED _SNOWOVERLAYTYPE_WORLD_NORMAL_BASED _TREETYPE_BROADLEAF
  m_LightmapFlags: 4
  m_EnableInstancingVariants: 0
  m_DoubleSidedGI: 0
  m_CustomRenderQueue: -1
  stringTagMap: {}
  disabledShaderPasses: []
  m_SavedProperties:
    serializedVersion: 3
    m_TexEnvs:
    - _BumpMap:
        m_Texture: {fileID: 0}
        m_Scale: {x: 1, y: 1}
        m_Offset: {x: 0, y: 0}
    - _CoverageAlbedo:
        m_Texture: {fileID: 0}
        m_Scale: {x: 1, y: 1}
        m_Offset: {x: 0, y: 0}
    - _CoverageMask:
        m_Texture: {fileID: 0}
        m_Scale: {x: 1, y: 1}
        m_Offset: {x: 0, y: 0}
    - _CoverageNormal:
        m_Texture: {fileID: 0}
        m_Scale: {x: 1, y: 1}
        m_Offset: {x: 0, y: 0}
    - _CoverageTexture:
        m_Texture: {fileID: 0}
        m_Scale: {x: 1, y: 1}
        m_Offset: {x: 0, y: 0}
    - _DetailAlbedoMap:
        m_Texture: {fileID: 0}
        m_Scale: {x: 1, y: 1}
        m_Offset: {x: 0, y: 0}
    - _DetailMask:
        m_Texture: {fileID: 0}
        m_Scale: {x: 1, y: 1}
        m_Offset: {x: 0, y: 0}
    - _DetailNormalMap:
        m_Texture: {fileID: 0}
        m_Scale: {x: 1, y: 1}
        m_Offset: {x: 0, y: 0}
    - _EmissionMap:
        m_Texture: {fileID: 0}
        m_Scale: {x: 1, y: 1}
        m_Offset: {x: 0, y: 0}
    - _LeavesTexture:
        m_Texture: {fileID: 2800000, guid: b572364bce4784f47a8cc62a92efbdc7, type: 3}
        m_Scale: {x: 1, y: 1}
        m_Offset: {x: 0, y: 0}
    - _MainTex:
        m_Texture: {fileID: 2800000, guid: b45720759f043f843a3bc7e1bf72b3aa, type: 3}
        m_Scale: {x: 1, y: 1}
        m_Offset: {x: 0, y: 0}
    - _MetallicGlossMap:
        m_Texture: {fileID: 0}
        m_Scale: {x: 1, y: 1}
        m_Offset: {x: 0, y: 0}
    - _OcclusionMap:
        m_Texture: {fileID: 0}
        m_Scale: {x: 1, y: 1}
        m_Offset: {x: 0, y: 0}
    - _ParallaxMap:
        m_Texture: {fileID: 0}
        m_Scale: {x: 1, y: 1}
        m_Offset: {x: 0, y: 0}
    - _SnowMask:
        m_Texture: {fileID: 2800000, guid: 16d574e53541bba44a84052fa38778df, type: 3}
        m_Scale: {x: 0.2, y: 0.2}
        m_Offset: {x: 0, y: 0}
    - _SnowTexture:
        m_Texture: {fileID: 0}
        m_Scale: {x: 1, y: 1}
        m_Offset: {x: 0, y: 0}
    - _SurfaceAlbedo:
        m_Texture: {fileID: 2800000, guid: b45720759f043f843a3bc7e1bf72b3aa, type: 3}
        m_Scale: {x: 1, y: 1}
        m_Offset: {x: 0, y: 0}
    - _SurfaceNormal:
        m_Texture: {fileID: 0}
        m_Scale: {x: 1, y: 1}
        m_Offset: {x: 0, y: 0}
    - _Texture0:
        m_Texture: {fileID: 0}
        m_Scale: {x: 1, y: 1}
        m_Offset: {x: 0, y: 0}
    - _Texture00:
        m_Texture: {fileID: 2800000, guid: b45720759f043f843a3bc7e1bf72b3aa, type: 3}
        m_Scale: {x: 1, y: 1}
        m_Offset: {x: 0, y: 0}
    - _TextureSample2:
        m_Texture: {fileID: 2800000, guid: 16d574e53541bba44a84052fa38778df, type: 3}
        m_Scale: {x: 1, y: 1}
        m_Offset: {x: 0, y: 0}
    - _texcoord:
        m_Texture: {fileID: 0}
        m_Scale: {x: 1, y: 1}
        m_Offset: {x: 0, y: 0}
    m_Floats:
    - _BlendNormals: 0
    - _BumpScale: 1
    - _COLOR2: 0
    - _COVERAGE: 0
    - _Color2: 0
    - _Color2Enable: 0
    - _Color2Fade: -0.06
    - _Color2Int: 0.36
    - _Color2Intensity: 1
    - _Color2Level: -7.5
    - _Color2OverlayType: 0
    - _Color2Power: -4.82
    - _Color2Type: 0
    - _CoverageContrast: 0.3
    - _CoverageFade: 0.5
    - _CoverageLevel: 0
    - _CoverageOverlayType: 0
    - _CoverageSmoothness: 0
    - _CoverageThicknessLevel: 1
    - _Cutoff: 0
    - _DetailNormalMapScale: 1
    - _DstBlend: 0
    - _EnableColor2: 0
    - _Fixthebaseoffoliage: 0
    - _GlossMapScale: 1
    - _Glossiness: 0.5
    - _GlossyReflections: 1
    - _InvertColor2: 0
    - _Keyword0: 1
    - _Metallic: 0
    - _Mode: 0
    - _OcclusionStrength: 1
    - _Parallax: 0.02
    - _SNOW: 0
    - _Smoothness: 0
    - _SmoothnessTextureChannel: 0
    - _Snow: 0
    - _SnowAmount: 0.5
    - _SnowFade: 0.05
    - _SnowLevel: 0
    - _SnowOverlayType: 0
    - _SpecularHighlights: 1
    - _SrcBlend: 1
    - _SurfaceSmoothness: 0
    - _TransAmbient: 0
    - _TransDirect: 1
    - _TransNormalDistortion: 0
    - _TransScattering: 1
    - _TransShadow: 1
    - _Translucency: 0
    - _TreeType: 0
    - _UVSec: 0
    - _WIND: 0
    - _Wind: 1
    - _WindForce: 0
    - _WindSpeed: 0.508
    - _WindWavesScale: 0.346
    - _ZWrite: 1
    - __dirty: 0
    m_Colors:
    - _Color: {r: 1, g: 1, b: 1, a: 1}
    - _Color1: {r: 1, g: 1, b: 1, a: 0}
    - _Color2: {r: 1, g: 1, b: 1, a: 0}
    - _CoverageColor: {r: 1, g: 1, b: 1, a: 0}
    - _EmissionColor: {r: 0, g: 0, b: 0, a: 1}
    - _SnowColor: {r: 1, g: 1, b: 1, a: 0}
    - _SurfaceColor: {r: 1, g: 1, b: 1, a: 0}
